{
	"eleve_annee" : {
		"message": "A quel semestre êtes-vous ?",
		"expected": ["1","2","3","4","5","6","ancien","autre"],
		"variable": "semestre",
		"next": {
			"1" : "A1_groupe",
			"2" : "A1_groupe",
			"3" : "S3_groupe",
			"4" : "S4_groupe",
			"5" : "LP_groupe",
			"6" : "LP_groupe", 
			"ancien" : "nom",
			"autre" : "nom"
		}
	},
	"A1_groupe" : {
		"message": "Parfait ! Dans quel groupe êtes-vous ?",
		"expected": ["1","2","3","4","5","6","7","8","autre"],
		"variable": "groupe",
		"next": "nom"
	},
	"S3_groupe" : {
		"message": "Parfait ! Dans quel groupe êtes-vous ?",
		"expected": ["1","2","3","4","5","6","autre"],
		"variable": "groupe",
		"next": "nom"
	},
	"S4_groupe" : {
		"message": "Parfait ! Dans quel groupe êtes-vous ?",
		"expected": ["at1", "at2", "at3", "os1", "os2", "autre"],
		"variable": "groupe",
		"next": "nom"
	},
	"LP_groupe" : {
		"message": "Parfait ! Dans quel licence êtes-vous ?",
		"expected": ["ars", "cdad", "autre"],
		"variable": "groupe",
		"next": "nom"
	},
	"nom" : {
		"message": "Ca marche ! Maintenant, il ne reste plus qu'à me donner ton prénom + 1ère lettre de ton nom de famille (par exemple : Robert S)",
		"variable": "name",
		"min_char": 2,
		"max_char": 25,
		"next": "end"
	},
	"end" : {
		"message": "C'est fini ! Bienvenue sur le serveur Discord ! N'hésite pas à contacter les modérateurs s'il y a eu le moindre pépin dans l'attribution de tes roles (pas la bonne année, pas le bon groupe, etc) ;)"
	}
}